…
##   AGE_GROUP   n     skew
## 1  B. 10-20   4 1.780633
## 2  C. 20-30 137 1.780633
## 3  D. 30-40 351 1.780633
## 4  E. 40-50 171 1.780633
## 5  F. 50-60  52 1.780633
## 6  G. 60-70  10 1.780633
## 7  H. 70-80   1 1.780633
## 8  I. 80-90   3 1.780633
## 9 J. 90-100   1 1.780633

## # A tibble: 51 x 3
## # Rowwise: 
##    SYMPTOM                        n   PERC
##    <chr>                      <int>  <dbl>
##  1 Abortion spontaneous         241 0.152 
##  2 Heavy menstrual bleeding     101 0.0639
##  3 Menstruation irregular        80 0.0506
##  4 Menstrual disorder            74 0.0468
##  5 Dysmenorrhoea                 65 0.0411
##  6 Intermenstrual bleeding       45 0.0285
##  7 Menstruation delayed          32 0.0202
##  8 Vaginal haemorrhage           23 0.0145
##  9 Amenorrhoea                   20 0.0126
## 10 Postmenopausal haemorrhage    17 0.0108
## # … with 41 more rows
…
